…
``` r
d %>%
  mutate(alleles_over_2n = parse_number(alleles_over_2n)) %>%
  filter(alleles_over_2n > 0) %>%
  group_by(group, gene, population) %>%
  summarize(sum = sum(alleles_over_2n)) %>%
  count(sum == 1)
```

    ## `summarise()` has grouped output by 'group', 'gene'. You can override using the `.groups` argument.

    ## # A tibble: 44 × 4
    ## # Groups:   group, gene [28]
    ##    group gene  `sum == 1`     n
    ##    <chr> <chr> <lgl>      <int>
    ##  1 hla   A     FALSE        420
    ##  2 hla   A     TRUE          18
    ##  3 hla   B     FALSE        513
    ##  4 hla   B     TRUE          19
    ##  5 hla   C     FALSE        323
    ##  6 hla   C     TRUE          19
    ##  7 hla   DPA1  FALSE         54
    ##  8 hla   DPA1  TRUE           6
    ##  9 hla   DPB1  FALSE        207
    ## 10 hla   DPB1  TRUE          39
    ## # ℹ 34 more rows
…
